<svg width="23" height="23" viewBox="0 0 23 23" fill="none" xmlns="http://www.w3.org/2000/svg">
<path d="M9.69641 0.724854H13.779V22.4971H9.69641V0.724854Z" fill="#C4C4C4"/>
<path d="M0.851562 13.6522V9.56961H22.6238V13.6522H0.851562Z" fill="#C4C4C4"/>
</svg>
