<svg width="45" height="45" viewBox="0 0 45 45" fill="none" xmlns="http://www.w3.org/2000/svg">
<path d="M32.25 15V7.5V6.75V6.675V6.6L30.75 0.6C30.675 0.225 30.375 0 30 0H15C14.625 0 14.325 0.225 14.25 0.6L12.75 6.6V6.675V6.75V7.5V18C12.75 18.45 13.05 18.75 13.5 18.75H16.5H19.5H28.5C30.6 18.75 32.25 17.1 32.25 15ZM26.25 6H23.25V1.5H26.25V6ZM21.75 6H18.75V1.5H21.75V6ZM21.75 7.5C21.75 8.325 21.075 9 20.25 9C19.425 9 18.75 8.325 18.75 7.5H21.75ZM26.25 7.5C26.25 8.325 25.575 9 24.75 9C23.925 9 23.25 8.325 23.25 7.5H26.25ZM30.75 7.5C30.75 8.325 30.075 9 29.25 9C28.425 9 27.75 8.325 27.75 7.5H30.75ZM30.525 6H27.75V1.5H29.4L30.525 6ZM15.6 1.5H17.25V6H14.475L15.6 1.5ZM17.25 7.5C17.25 8.325 16.575 9 15.75 9C14.925 9 14.25 8.325 14.25 7.5H17.25ZM14.25 10.05C14.7 10.275 15.225 10.5 15.75 10.5C16.65 10.5 17.475 10.125 18 9.45C18.525 10.05 19.35 10.5 20.25 10.5C21.15 10.5 21.975 10.125 22.5 9.45C23.025 10.05 23.85 10.5 24.75 10.5C25.65 10.5 26.475 10.125 27 9.45C27.525 10.05 28.35 10.5 29.25 10.5C29.775 10.5 30.3 10.35 30.75 10.05V15C30.75 16.275 29.775 17.25 28.5 17.25H20.25V13.5C20.25 13.05 19.95 12.75 19.5 12.75H16.5C16.05 12.75 15.75 13.05 15.75 13.5V17.25H14.25V10.05ZM17.25 17.25V14.25H18.75V17.25H17.25Z" fill="#ED1D24"/>
<path d="M24.75 12.75H23.25V14.25H24.75V12.75Z" fill="#ED1D24"/>
<path d="M27.75 12.75H26.25V14.25H27.75V12.75Z" fill="#ED1D24"/>
<path d="M19.5 32.85L18 26.85C17.925 26.55 17.625 26.25 17.25 26.25H2.25C1.875 26.25 1.575 26.475 1.5 26.85L0 32.85V32.925V33V33.75V44.25C0 44.7 0.3 45 0.75 45H3.75H6.75H15.75C17.85 45 19.5 43.35 19.5 41.25V33.75V33V32.925C19.5 32.85 19.5 32.85 19.5 32.85ZM13.5 32.25H10.5V27.75H13.5V32.25ZM9 32.25H6V27.75H9V32.25ZM9 33.75C9 34.575 8.325 35.25 7.5 35.25C6.675 35.25 6 34.575 6 33.75H9ZM13.5 33.75C13.5 34.575 12.825 35.25 12 35.25C11.175 35.25 10.5 34.575 10.5 33.75H13.5ZM18 33.75C18 34.575 17.325 35.25 16.5 35.25C15.675 35.25 15 34.575 15 33.75H18ZM17.775 32.25H15V27.75H16.65L17.775 32.25ZM2.85 27.75H4.5V32.25H1.725L2.85 27.75ZM4.5 33.75C4.5 34.575 3.825 35.25 3 35.25C2.175 35.25 1.5 34.575 1.5 33.75H4.5ZM4.5 43.5V40.5H6V43.5H4.5ZM15.75 43.5H7.5V39.75C7.5 39.3 7.2 39 6.75 39H3.75C3.3 39 3 39.3 3 39.75V43.5H1.5V36.3C1.95 36.6 2.475 36.75 3 36.75C3.9 36.75 4.725 36.375 5.25 35.7C5.775 36.3 6.6 36.75 7.5 36.75C8.4 36.75 9.225 36.375 9.75 35.7C10.275 36.3 11.1 36.75 12 36.75C12.9 36.75 13.725 36.375 14.25 35.7C14.775 36.3 15.6 36.75 16.5 36.75C17.025 36.75 17.55 36.6 18 36.3V41.25C18 42.525 17.025 43.5 15.75 43.5Z" fill="#ED1D24"/>
<path d="M12 39H10.5V40.5H12V39Z" fill="#ED1D24"/>
<path d="M15 39H13.5V40.5H15V39Z" fill="#ED1D24"/>
<path d="M45 32.925V32.85L43.5 26.85C43.425 26.55 43.125 26.25 42.75 26.25H27.75C27.375 26.25 27.075 26.475 27 26.85L25.5 32.85V32.925V33V33.75V44.25C25.5 44.7 25.8 45 26.25 45H29.25H32.25H41.25C43.35 45 45 43.35 45 41.25V33.75V33V32.925ZM39 32.25H36V27.75H39V32.25ZM34.5 32.25H31.5V27.75H34.5V32.25ZM34.5 33.75C34.5 34.575 33.825 35.25 33 35.25C32.175 35.25 31.5 34.575 31.5 33.75H34.5ZM39 33.75C39 34.575 38.325 35.25 37.5 35.25C36.675 35.25 36 34.575 36 33.75H39ZM43.5 33.75C43.5 34.575 42.825 35.25 42 35.25C41.175 35.25 40.5 34.575 40.5 33.75H43.5ZM43.275 32.25H40.5V27.75H42.15L43.275 32.25ZM28.35 27.75H30V32.25H27.225L28.35 27.75ZM30 33.75C30 34.575 29.325 35.25 28.5 35.25C27.675 35.25 27 34.575 27 33.75H30ZM30 43.5V40.5H31.5V43.5H30ZM41.25 43.5H33V39.75C33 39.3 32.7 39 32.25 39H29.25C28.8 39 28.5 39.3 28.5 39.75V43.5H27V36.3C27.45 36.525 27.975 36.75 28.5 36.75C29.4 36.75 30.225 36.375 30.75 35.7C31.275 36.3 32.1 36.75 33 36.75C33.9 36.75 34.725 36.375 35.25 35.7C35.775 36.3 36.6 36.75 37.5 36.75C38.4 36.75 39.225 36.375 39.75 35.7C40.275 36.3 41.1 36.75 42 36.75C42.525 36.75 43.05 36.6 43.5 36.3V41.25C43.5 42.525 42.525 43.5 41.25 43.5Z" fill="#ED1D24"/>
<path d="M37.5 39H36V40.5H37.5V39Z" fill="#ED1D24"/>
<path d="M40.5 39H39V40.5H40.5V39Z" fill="#ED1D24"/>
<path d="M41.25 23.25H39.75V24.75H41.25V23.25Z" fill="#ED1D24"/>
<path d="M41.25 20.25H39.75V21.75H41.25V20.25Z" fill="#ED1D24"/>
<path d="M41.25 17.25H39.75V18.75H41.25V17.25Z" fill="#ED1D24"/>
<path d="M41.25 14.25H39.75V15.75H41.25V14.25Z" fill="#ED1D24"/>
<path d="M41.25 11.25H39.75V12.75H41.25V11.25Z" fill="#ED1D24"/>
<path d="M41.25 8.25H39.75V9.75H41.25V8.25Z" fill="#ED1D24"/>
<path d="M38.25 8.25H36.75V9.75H38.25V8.25Z" fill="#ED1D24"/>
<path d="M35.25 8.25H33.75V9.75H35.25V8.25Z" fill="#ED1D24"/>
<path d="M5.25 23.25H3.75V24.75H5.25V23.25Z" fill="#ED1D24"/>
<path d="M5.25 20.25H3.75V21.75H5.25V20.25Z" fill="#ED1D24"/>
<path d="M5.25 17.25H3.75V18.75H5.25V17.25Z" fill="#ED1D24"/>
<path d="M5.25 14.25H3.75V15.75H5.25V14.25Z" fill="#ED1D24"/>
<path d="M5.25 11.25H3.75V12.75H5.25V11.25Z" fill="#ED1D24"/>
<path d="M5.25 8.25H3.75V9.75H5.25V8.25Z" fill="#ED1D24"/>
<path d="M8.25 8.25H6.75V9.75H8.25V8.25Z" fill="#ED1D24"/>
<path d="M11.25 8.25H9.75V9.75H11.25V8.25Z" fill="#ED1D24"/>
</svg>
