<svg width="49" height="49" viewBox="0 0 49 49" fill="none" xmlns="http://www.w3.org/2000/svg">
<path d="M11.8184 17.7686V16.1808C13.1054 15.8726 14.0684 14.7198 14.0684 13.3391C14.0684 12.0761 13.2636 10.9593 12.0651 10.5603L10.5464 10.0533C9.96061 9.8583 9.56836 9.3138 9.56836 8.6973C9.56836 7.90905 10.2089 7.26855 10.9971 7.26855H11.1389C11.9279 7.26855 12.5684 7.90905 12.5684 8.6973V8.76855L14.0684 8.6973C14.0684 7.3173 13.1054 6.1638 11.8184 5.85555V4.26855H10.3184V5.8563C9.03136 6.16455 8.06836 7.3173 8.06836 8.69805C8.06836 9.96105 8.87311 11.0778 10.0716 11.4768L11.5904 11.9838C12.1761 12.1788 12.5684 12.7233 12.5684 13.3398C12.5684 14.1281 11.9279 14.7686 11.1396 14.7686H10.9979C10.2089 14.7686 9.56836 14.1281 9.56836 13.3398V12.5186H8.06836V13.3398C8.06836 14.7198 9.03136 15.8733 10.3184 16.1816V17.7686H11.8184Z" fill="black"/>
<path d="M38.0684 31.2686C36.0006 31.2686 34.3184 32.9508 34.3184 35.0186V35.7686H32.8184V37.2686H34.3184V38.7686H32.8184V40.2686H34.3184V41.0186C34.3184 43.0863 36.0006 44.7686 38.0684 44.7686C40.1361 44.7686 41.8184 43.0863 41.8184 41.0186V40.2686H40.3184V41.0186C40.3184 42.2591 39.3089 43.2686 38.0684 43.2686C36.8279 43.2686 35.8184 42.2591 35.8184 41.0186V40.2686H37.3184V38.7686H35.8184V37.2686H37.3184V35.7686H35.8184V35.0186C35.8184 33.7781 36.8279 32.7686 38.0684 32.7686C39.3089 32.7686 40.3184 33.7781 40.3184 35.0186V35.7686H41.8184V35.0186C41.8184 32.9508 40.1361 31.2686 38.0684 31.2686Z" fill="black"/>
<path d="M18.5684 27.5186H15.5684C14.3279 27.5186 13.3184 28.5281 13.3184 29.7686C13.3184 31.0091 14.3279 32.0186 15.5684 32.0186H18.5684C19.8089 32.0186 20.8184 31.0091 20.8184 29.7686C20.8184 28.5281 19.8089 27.5186 18.5684 27.5186ZM18.5684 30.5186H15.5684C15.1544 30.5186 14.8184 30.1826 14.8184 29.7686C14.8184 29.3546 15.1544 29.0186 15.5684 29.0186H18.5684C18.9824 29.0186 19.3184 29.3546 19.3184 29.7686C19.3184 30.1826 18.9824 30.5186 18.5684 30.5186Z" fill="black"/>
<path d="M38.8184 28.3068V16.2686C38.8184 15.0281 37.8089 14.0186 36.5684 14.0186H20.3414C20.6481 13.0728 20.8184 12.0656 20.8184 11.0186C20.8184 5.64255 16.4444 1.26855 11.0684 1.26855C5.69236 1.26855 1.31836 5.64255 1.31836 11.0186C1.31836 16.1411 5.29261 20.3448 10.3184 20.7303V32.7686C10.3184 34.0091 11.3279 35.0186 12.5684 35.0186H28.7954C28.4886 35.9643 28.3184 36.9716 28.3184 38.0186C28.3184 43.3946 32.6924 47.7686 38.0684 47.7686C43.4444 47.7686 47.8184 43.3946 47.8184 38.0186C47.8184 32.8961 43.8441 28.6923 38.8184 28.3068ZM17.2896 18.5186H37.3184V21.5186H11.8184V20.7303C13.8884 20.5721 15.7806 19.7718 17.2896 18.5186ZM36.5684 15.5186C36.9824 15.5186 37.3184 15.8546 37.3184 16.2686V17.0186H18.7371C19.1046 16.5506 19.4309 16.0496 19.7084 15.5186H36.5684ZM2.81836 11.0186C2.81836 6.4698 6.51961 2.76855 11.0684 2.76855C15.6171 2.76855 19.3184 6.4698 19.3184 11.0186C19.3184 15.5673 15.6171 19.2686 11.0684 19.2686C6.51961 19.2686 2.81836 15.5673 2.81836 11.0186ZM12.5684 33.5186C12.1544 33.5186 11.8184 33.1826 11.8184 32.7686V23.0186H37.3184V28.3068C33.8849 28.5701 30.9471 30.6138 29.4276 33.5186H12.5684ZM38.0684 46.2686C33.5196 46.2686 29.8184 42.5673 29.8184 38.0186C29.8184 33.4698 33.5196 29.7686 38.0684 29.7686C42.6171 29.7686 46.3184 33.4698 46.3184 38.0186C46.3184 42.5673 42.6171 46.2686 38.0684 46.2686Z" fill="black"/>
<path d="M43.2494 22.9668L41.5184 21.6686L40.6184 22.8686L44.0684 25.4561L47.5184 22.8686L46.6184 21.6686L44.7599 23.0621C44.0106 12.5741 35.2439 4.26855 24.5684 4.26855V5.76855C34.3844 5.76855 42.4566 13.3518 43.2494 22.9668Z" fill="black"/>
<path d="M5.88716 26.0703L7.61816 27.3686L8.51742 26.1686L5.06816 23.5811L1.61816 26.1686L2.51816 27.3686L4.37666 25.9751C5.12591 36.4631 13.8927 44.7686 24.5682 44.7686V43.2686C14.7522 43.2686 6.67991 35.6853 5.88716 26.0703Z" fill="black"/>
</svg>
